{
  "name": "Ariados",
  "nationalPokedexNumber": 168,
  "primaryType": "bug",
  "secondaryType": "poison",
  "abilities": [
    "swarm",
    "insomnia",
    "h:sniper"
  ],
  "baseStats": {
    "hp": 70,
    "attack": 90,
    "defence": 70,
    "special_attack": 60,
    "special_defence": 70,
    "speed": 40
  },
  "catchRate": 90,
  "maleRatio": 0.5,
  "shoulderMountable": false,
  "baseExperienceYield": 140,
  "experienceGroup": "fast",
  "eggCycles": 15,
  "eggGroups": [
    "bug"
  ],
  "moves": [
    "1:absorb",
    "1:bugbite",
    "1:constrict",
    "1:fellstinger",
    "1:focusenergy",
    "1:poisonsting",
    "1:stringshot",
    "1:swordsdance",
    "1:venomdrench",
    "8:infestation",
    "12:leechlife",
    "12:scaryface",
    "15:nightshade",
    "19:shadowsneak",
    "23:furyswipes",
    "28:suckerpunch",
    "32:spiderweb",
    "37:agility",
    "41:pinmissile",
    "46:psychic",
    "50:poisonjab",
    "55:crosspoison",
    "58:stickyweb",
    "63:toxicthread",
    "tm:attract",
    "tm:captivate",
    "tm:confide",
    "tm:dig",
    "tm:doubleteam",
    "tm:endure",
    "tm:facade",
    "tm:flash",
    "tm:frustration",
    "tm:gigadrain",
    "tm:gigaimpact",
    "tm:hiddenpower",
    "tm:honeclaws",
    "tm:hyperbeam",
    "tm:infestation",
    "tm:leechlife",
    "tm:naturalgift",
    "tm:poisonjab",
    "tm:protect",
    "tm:psychic",
    "tm:rest",
    "tm:return",
    "tm:round",
    "tm:secretpower",
    "tm:sleeptalk",
    "tm:sludgebomb",
    "tm:smartstrike",
    "tm:solarbeam",
    "tm:strugglebug",
    "tm:substitute",
    "tm:sunnyday",
    "tm:swagger",
    "tm:swordsdance",
    "tm:thief",
    "tm:toxic",
    "tm:venoshock",
    "tm:xscissor",
    "tutor:agility",
    "tutor:attract",
    "tutor:bodyslam",
    "tutor:bounce",
    "tutor:bugbite",
    "tutor:constrict",
    "tutor:curse",
    "tutor:dig",
    "tutor:doubleedge",
    "tutor:doubleteam",
    "tutor:electroweb",
    "tutor:endure",
    "tutor:flash",
    "tutor:foulplay",
    "tutor:frustration",
    "tutor:furyswipes",
    "tutor:gigadrain",
    "tutor:hiddenpower",
    "tutor:hyperbeam",
    "tutor:leechlife",
    "tutor:mimic",
    "tutor:nightshade",
    "tutor:poisonsting",
    "tutor:protect",
    "tutor:psychic",
    "tutor:rest",
    "tutor:return",
    "tutor:scaryface",
    "tutor:screech",
    "tutor:signalbeam",
    "tutor:sleeptalk",
    "tutor:sludgebomb",
    "tutor:snore",
    "tutor:solarbeam",
    "tutor:spiderweb",
    "tutor:stompingtantrum",
    "tutor:stringshot",
    "tutor:substitute",
    "tutor:suckerpunch",
    "tutor:sunnyday",
    "tutor:swagger",
    "tutor:thief",
    "tutor:throatchop",
    "tutor:toxic"
  ],
  "labels": [
    "gen2"
  ],
  "pokedex": [
    "cobblemon.species.ariados.desc"
  ],
  "preEvolution": "spinarak",
  "evolutions": [],
  "baseScale": 1,
  "hitbox": {
    "width": 1,
    "height": 1,
    "fixed": false
  },
  "baseFriendship": 70,
  "evYield": {
    "hp": 0,
    "attack": 2,
    "defence": 0,
    "special_attack": 0,
    "special_defence": 0,
    "speed": 0
  },
  "height": 11,
  "weight": 335,
  "aspects": [],
  "cannotDynamax": false
}