{
  "implemented": true,
  "name": "Blissey",
  "nationalPokedexNumber": 242,
  "primaryType": "normal",
  "abilities": [
    "naturalcure",
    "serenegrace",
    "h:healer"
  ],
  "baseStats": {
    "hp": 255,
    "attack": 10,
    "defence": 10,
    "special_attack": 75,
    "special_defence": 135,
    "speed": 55
  },
  "catchRate": 30,
  "maleRatio": 0,
  "shoulderMountable": false,
  "baseExperienceYield": 635,
  "experienceGroup": "fast",
  "eggCycles": 40,
  "eggGroups": [
    "fairy"
  ],
  "drops": {
    "amount": "1",
    "entries": [
      {
        "item": "cobblemon:lucky_egg",
        "percentage": 20
      },
      {
        "item": "cobblemon:oval_stone",
        "percentage": 20
      },
      {
        "item": "minecraft:egg",
        "percentage": 50
      }
    ]
  },
  "moves": [
    "1:charm",
    "1:copycat",
    "1:covet",
    "1:defensecurl",
    "1:disarmingvoice",
    "1:growl",
    "1:minimize",
    "1:pound",
    "1:sweetkiss",
    "4:tailwhip",
    "8:echoedvoice",
    "9:refresh",
    "12:doubleslap",
    "12:lifedew",
    "16:sing",
    "20:bestow",
    "20:fling",
    "24:takedown",
    "28:healpulse",
    "32:helpinghand",
    "36:lightscreen",
    "40:doubleedge",
    "42:eggbomb",
    "44:softboiled",
    "48:lastresort",
    "52:healingwish",
    "tm:allyswitch",
    "tm:attract",
    "tm:avalanche",
    "tm:blizzard",
    "tm:bodyslam",
    "tm:brickbreak",
    "tm:bulldoze",
    "tm:calmmind",
    "tm:captivate",
    "tm:chargebeam",
    "tm:charm",
    "tm:chillingwater",
    "tm:confide",
    "tm:dazzlinggleam",
    "tm:disarmingvoice",
    "tm:doubleteam",
    "tm:drainpunch",
    "tm:dreameater",
    "tm:earthquake",
    "tm:echoedvoice",
    "tm:electricterrain",
    "tm:endure",
    "tm:facade",
    "tm:fireblast",
    "tm:firepunch",
    "tm:flamethrower",
    "tm:flash",
    "tm:fling",
    "tm:focusblast",
    "tm:focuspunch",
    "tm:frustration",
    "tm:gigaimpact",
    "tm:grassknot",
    "tm:hail",
    "tm:helpinghand",
    "tm:hiddenpower",
    "tm:hyperbeam",
    "tm:hypervoice",
    "tm:icebeam",
    "tm:icepunch",
    "tm:icywind",
    "tm:incinerate",
    "tm:irontail",
    "tm:lightscreen",
    "tm:megakick",
    "tm:megapunch",
    "tm:metronome",
    "tm:naturalgift",
    "tm:poweruppunch",
    "tm:protect",
    "tm:psychic",
    "tm:psychup",
    "tm:raindance",
    "tm:recycle",
    "tm:rest",
    "tm:retaliate",
    "tm:return",
    "tm:rockclimb",
    "tm:rockslide",
    "tm:rocksmash",
    "tm:rocktomb",
    "tm:round",
    "tm:safeguard",
    "tm:sandstorm",
    "tm:secretpower",
    "tm:shadowball",
    "tm:shockwave",
    "tm:skillswap",
    "tm:sleeptalk",
    "tm:snatch",
    "tm:snore",
    "tm:snowscape",
    "tm:solarbeam",
    "tm:stealthrock",
    "tm:stompingtantrum",
    "tm:storedpower",
    "tm:strength",
    "tm:substitute",
    "tm:sunnyday",
    "tm:swagger",
    "tm:swift",
    "tm:takedown",
    "tm:terablast",
    "tm:thief",
    "tm:thunder",
    "tm:thunderbolt",
    "tm:thunderpunch",
    "tm:thunderwave",
    "tm:toxic",
    "tm:trailblaze",
    "tm:triattack",
    "tm:trick",
    "tm:uproar",
    "tm:waterpulse",
    "tm:wildcharge",
    "tm:workup",
    "tm:zenheadbutt",
    "tutor:allyswitch",
    "tutor:attract",
    "tutor:blizzard",
    "tutor:block",
    "tutor:bodyslam",
    "tutor:counter",
    "tutor:covet",
    "tutor:curse",
    "tutor:defensecurl",
    "tutor:doubleedge",
    "tutor:doubleslap",
    "tutor:doubleteam",
    "tutor:drainpunch",
    "tutor:dreameater",
    "tutor:dynamicpunch",
    "tutor:eggbomb",
    "tutor:endeavor",
    "tutor:endure",
    "tutor:fireblast",
    "tutor:firepunch",
    "tutor:flash",
    "tutor:focuspunch",
    "tutor:frustration",
    "tutor:gravity",
    "tutor:growl",
    "tutor:headbutt",
    "tutor:healbell",
    "tutor:helpinghand",
    "tutor:hiddenpower",
    "tutor:hyperbeam",
    "tutor:hypervoice",
    "tutor:icepunch",
    "tutor:icywind",
    "tutor:irontail",
    "tutor:laserfocus",
    "tutor:lastresort",
    "tutor:lightscreen",
    "tutor:megakick",
    "tutor:megapunch",
    "tutor:metronome",
    "tutor:mimic",
    "tutor:minimize",
    "tutor:mudslap",
    "tutor:pound",
    "tutor:protect",
    "tutor:psychic",
    "tutor:raindance",
    "tutor:recycle",
    "tutor:refresh",
    "tutor:rest",
    "tutor:return",
    "tutor:rocksmash",
    "tutor:rollout",
    "tutor:sandstorm",
    "tutor:seismictoss",
    "tutor:shadowball",
    "tutor:shockwave",
    "tutor:sing",
    "tutor:skillswap",
    "tutor:sleeptalk",
    "tutor:snatch",
    "tutor:snore",
    "tutor:softboiled",
    "tutor:solarbeam",
    "tutor:stealthrock",
    "tutor:stompingtantrum",
    "tutor:strength",
    "tutor:substitute",
    "tutor:sunnyday",
    "tutor:swagger",
    "tutor:tailwhip",
    "tutor:telekinesis",
    "tutor:thunder",
    "tutor:thunderpunch",
    "tutor:thunderwave",
    "tutor:toxic",
    "tutor:waterpulse",
    "tutor:zapcannon",
    "tutor:zenheadbutt"
  ],
  "labels": [
    "gen2"
  ],
  "pokedex": [
    "cobblemon.species.blissey.desc"
  ],
  "preEvolution": "chansey",
  "evolutions": [],
  "baseScale": 1.3,
  "hitbox": {
    "width": 1,
    "height": 1.2,
    "fixed": false
  },
  "baseFriendship": 140,
  "evYield": {
    "hp": 3,
    "attack": 0,
    "defence": 0,
    "special_attack": 0,
    "special_defence": 0,
    "speed": 0
  },
  "height": 15,
  "weight": 468,
  "aspects": [],
  "cannotDynamax": false
}