{
  "name": "Palpitoad",
  "nationalPokedexNumber": 536,
  "primaryType": "water",
  "secondaryType": "ground",
  "abilities": [
    "swiftswim",
    "hydration",
    "h:waterabsorb"
  ],
  "baseStats": {
    "hp": 75,
    "attack": 65,
    "defence": 55,
    "special_attack": 65,
    "special_defence": 55,
    "speed": 69
  },
  "catchRate": 120,
  "maleRatio": 0.5,
  "shoulderMountable": false,
  "baseExperienceYield": 134,
  "experienceGroup": "medium_slow",
  "eggCycles": 20,
  "eggGroups": [
    "water_1"
  ],
  "moves": [
    "1:acid",
    "1:bubble",
    "1:echoedvoice",
    "1:growl",
    "1:supersonic",
    "12:mudshot",
    "16:round",
    "20:bubblebeam",
    "24:flail",
    "30:uproar",
    "37:aquaring",
    "42:hypervoice",
    "48:muddywater",
    "54:raindance",
    "60:hydropump",
    "tm:attract",
    "tm:bounce",
    "tm:bulldoze",
    "tm:confide",
    "tm:doubleteam",
    "tm:earthpower",
    "tm:echoedvoice",
    "tm:endure",
    "tm:facade",
    "tm:frustration",
    "tm:hail",
    "tm:hiddenpower",
    "tm:hydropump",
    "tm:hypervoice",
    "tm:icywind",
    "tm:infestation",
    "tm:muddywater",
    "tm:mudshot",
    "tm:powerwhip",
    "tm:protect",
    "tm:raindance",
    "tm:rest",
    "tm:return",
    "tm:rocksmash",
    "tm:round",
    "tm:scald",
    "tm:screech",
    "tm:secretpower",
    "tm:sleeptalk",
    "tm:sludgebomb",
    "tm:sludgewave",
    "tm:snore",
    "tm:stealthrock",
    "tm:substitute",
    "tm:surf",
    "tm:swagger",
    "tm:toxic",
    "tm:uproar",
    "tm:venomdrench",
    "tm:weatherball",
    "tutor:afteryou",
    "tutor:bounce",
    "tutor:earthpower",
    "tutor:endeavor",
    "tutor:focuspunch",
    "tutor:gastroacid",
    "tutor:hypervoice",
    "tutor:icywind",
    "tutor:sleeptalk",
    "tutor:snore",
    "tutor:stealthrock",
    "tutor:uproar",
    "tutor:waterpulse"
  ],
  "labels": [
    "gen5"
  ],
  "pokedex": [
    "cobblemon.species.palpitoad.desc"
  ],
  "preEvolution": "tympole",
  "evolutions": [
    {
      "id": "palpitoad_seismitoad",
      "variant": "level_up",
      "result": "seismitoad",
      "consumeHeldItem": false,
      "learnableMoves": [
        "drainpunch"
      ],
      "requirements": [
        {
          "variant": "level",
          "minLevel": 36
        }
      ]
    }
  ],
  "baseScale": 1,
  "hitbox": {
    "width": 1,
    "height": 1,
    "fixed": false
  },
  "baseFriendship": 50,
  "evYield": {
    "hp": 2,
    "attack": 0,
    "defence": 0,
    "special_attack": 0,
    "special_defence": 0,
    "speed": 0
  },
  "height": 8,
  "weight": 170,
  "aspects": [],
  "cannotDynamax": false
}