{
  "name": "Pheromosa",
  "nationalPokedexNumber": 795,
  "primaryType": "bug",
  "secondaryType": "fighting",
  "abilities": [
    "beastboost"
  ],
  "baseStats": {
    "hp": 71,
    "attack": 137,
    "defence": 37,
    "special_attack": 137,
    "special_defence": 37,
    "speed": 151
  },
  "catchRate": 45,
  "maleRatio": -1,
  "shoulderMountable": false,
  "baseExperienceYield": 285,
  "experienceGroup": "slow",
  "eggCycles": 120,
  "eggGroups": [
    "undiscovered"
  ],
  "moves": [
    "1:feint",
    "1:rapidspin",
    "5:leer",
    "7:swift",
    "10:quickguard",
    "15:bugbite",
    "20:lowkick",
    "23:silverwind",
    "25:doublekick",
    "30:triplekick",
    "31:jumpkick",
    "35:stomp",
    "40:agility",
    "45:lunge",
    "50:bounce",
    "55:speedswap",
    "59:mefirst",
    "60:bugbuzz",
    "65:quiverdance",
    "70:highjumpkick",
    "tm:agility",
    "tm:assurance",
    "tm:blizzard",
    "tm:bounce",
    "tm:brickbreak",
    "tm:bugbuzz",
    "tm:closecombat",
    "tm:confide",
    "tm:doubleteam",
    "tm:drillrun",
    "tm:echoedvoice",
    "tm:electroweb",
    "tm:endure",
    "tm:facade",
    "tm:falseswipe",
    "tm:fling",
    "tm:focusblast",
    "tm:foulplay",
    "tm:frustration",
    "tm:gigaimpact",
    "tm:hiddenpower",
    "tm:hyperbeam",
    "tm:icebeam",
    "tm:icywind",
    "tm:lowkick",
    "tm:lowsweep",
    "tm:outrage",
    "tm:poisonjab",
    "tm:protect",
    "tm:rest",
    "tm:return",
    "tm:roost",
    "tm:round",
    "tm:sleeptalk",
    "tm:snore",
    "tm:speedswap",
    "tm:substitute",
    "tm:swagger",
    "tm:swift",
    "tm:taunt",
    "tm:throatchop",
    "tm:torment",
    "tm:toxic",
    "tm:uturn",
    "tutor:block",
    "tutor:bounce",
    "tutor:bugbite",
    "tutor:bugbuzz",
    "tutor:coaching",
    "tutor:drillrun",
    "tutor:electroweb",
    "tutor:foulplay",
    "tutor:highjumpkick",
    "tutor:icywind",
    "tutor:laserfocus",
    "tutor:lowkick",
    "tutor:lunge",
    "tutor:mefirst",
    "tutor:outrage",
    "tutor:shockwave",
    "tutor:signalbeam",
    "tutor:skittersmack",
    "tutor:snatch",
    "tutor:snore",
    "tutor:swift",
    "tutor:throatchop",
    "tutor:tripleaxel",
    "tutor:triplekick"
  ],
  "labels": [
    "gen7",
    "ultra_beast"
  ],
  "pokedex": [
    "cobblemon.species.pheromosa.desc"
  ],
  "evolutions": [],
  "baseScale": 1,
  "hitbox": {
    "width": 1,
    "height": 1,
    "fixed": false
  },
  "baseFriendship": 0,
  "evYield": {
    "hp": 0,
    "attack": 0,
    "defence": 0,
    "special_attack": 0,
    "special_defence": 0,
    "speed": 3
  },
  "height": 18,
  "weight": 250,
  "aspects": [],
  "cannotDynamax": false
}