{
  "name": "Swellow",
  "nationalPokedexNumber": 277,
  "primaryType": "normal",
  "secondaryType": "flying",
  "abilities": [
    "guts",
    "h:scrappy"
  ],
  "baseStats": {
    "hp": 60,
    "attack": 85,
    "defence": 60,
    "special_attack": 75,
    "special_defence": 50,
    "speed": 125
  },
  "catchRate": 45,
  "maleRatio": 0.5,
  "shoulderMountable": false,
  "baseExperienceYield": 159,
  "experienceGroup": "medium_slow",
  "eggCycles": 15,
  "eggGroups": [
    "flying"
  ],
  "moves": [
    "1:airslash",
    "1:bravebird",
    "1:focusenergy",
    "1:growl",
    "1:peck",
    "1:pluck",
    "1:quickattack",
    "13:wingattack",
    "17:doubleteam",
    "21:aerialace",
    "27:quickguard",
    "33:agility",
    "45:endeavor",
    "57:reversal",
    "tm:aerialace",
    "tm:attract",
    "tm:captivate",
    "tm:confide",
    "tm:defog",
    "tm:doubleteam",
    "tm:echoedvoice",
    "tm:endure",
    "tm:facade",
    "tm:fly",
    "tm:frustration",
    "tm:gigaimpact",
    "tm:hiddenpower",
    "tm:hyperbeam",
    "tm:naturalgift",
    "tm:pluck",
    "tm:protect",
    "tm:raindance",
    "tm:rest",
    "tm:return",
    "tm:roost",
    "tm:round",
    "tm:secretpower",
    "tm:sleeptalk",
    "tm:steelwing",
    "tm:substitute",
    "tm:sunnyday",
    "tm:swagger",
    "tm:thief",
    "tm:toxic",
    "tm:uturn",
    "tm:workup",
    "tutor:agility",
    "tutor:aircutter",
    "tutor:batonpass",
    "tutor:counter",
    "tutor:defog",
    "tutor:doubleedge",
    "tutor:endeavor",
    "tutor:endure",
    "tutor:facade",
    "tutor:heatwave",
    "tutor:laserfocus",
    "tutor:mimic",
    "tutor:mudslap",
    "tutor:ominouswind",
    "tutor:roost",
    "tutor:skyattack",
    "tutor:sleeptalk",
    "tutor:snore",
    "tutor:substitute",
    "tutor:swagger",
    "tutor:swift",
    "tutor:tailwind",
    "tutor:twister"
  ],
  "labels": [
    "gen3"
  ],
  "pokedex": [
    "cobblemon.species.swellow.desc"
  ],
  "preEvolution": "taillow",
  "evolutions": [],
  "baseScale": 1,
  "hitbox": {
    "width": 1,
    "height": 1,
    "fixed": false
  },
  "baseFriendship": 70,
  "evYield": {
    "hp": 0,
    "attack": 0,
    "defence": 0,
    "special_attack": 0,
    "special_defence": 0,
    "speed": 2
  },
  "height": 7,
  "weight": 198,
  "aspects": [],
  "cannotDynamax": false
}